Oscilloscope_data.csv

TEK0000
Record Length,1.024E+03,,0.00000,-56.18970,
Sample Interval,4.932134E+00,,4.93213,-58.58970,
Trigger Point,0E+00,,9.86427,-81.78970,
,,,14.79640,-86.98970,
,,,19.72854,-86.98970,
,,,24.66067,-86.98970,
Source,MATH,,29.59280,-86.98970,
Vertical Units,dB,,34.52494,-85.78970,
Vertical Scale,1E+01,,39.45707,-85.78970,
Vertical Offset,0E+00,,44.38920,-85.78970,
Horizontal Units,Hz,,49.32134,-86.98970,
Horizontal Scale,5.050505E+02,,54.25347,-86.98970,
Pt Fmt,Y,,59.18561,-85.78970,
Yzero,-4.69897E+01,,64.11774,-86.98970,
Probe Atten,1E+00,,69.04987,-86.98970,
Firmware Version,FV:v6.08,,73.98201,-86.98970,
,,,78.91414,-86.98970,
,,,83.84627,-86.98970,
,,,88.77840,-86.98970,
,,,93.71053,-86.98970,
,,,98.64266,-85.78970,
,,,103.57479,-86.98970,
,,,108.50692,-86.98970,
,,,113.43905,-86.98970,
,,,118.37118,-86.98970,
,,,123.30331,-86.98970,
,,,128.23544,-86.98970,
,,,133.16757,-86.98970,
,,,138.09970,-86.98970,
,,,143.03183,-86.98970,
,,,147.96396,-86.98970,
,,,152.89609,-86.98970,
,,,157.82822,-86.98970,
,,,162.76035,-86.98970,
,,,167.69248,-86.98970,
,,,172.62461,-86.98970,
,,,177.55674,-86.98970,
,,,182.48887,-86.98970,
,,,187.42100,-86.98970,
,,,192.35313,-86.98970,
,,,197.28526,-86.98970,
,,,202.21739,-86.98970,
,,,207.14952,-86.98970,
,,,212.08165,-86.98970,
,,,217.01378,-86.98970,
,,,221.94591,-86.98970,
,,,226.87804,-86.98970,
,,,231.81017,-86.98970,
,,,236.74230,-86.98970,
,,,241.67443,-85.78970,
,,,246.60656,-86.98970,
,,,251.53869,-86.98970,
,,,256.47082,-86.98970,
,,,261.40295,-86.98970,
,,,266.33508,-86.98970,
,,,271.26721,-86.98970,
,,,276.19934,-86.98970,
,,,281.13147,-86.98970,
,,,286.06360,-86.98970,
,,,290.99573,-86.98970,
,,,295.92786,-86.98970,
,,,300.85999,-86.98970,
,,,305.79212,-86.98970,
,,,310.72425,-86.98970,
,,,315.65638,-86.98970,
,,,320.58851,-86.98970,
,,,325.52064,-86.98970,
,,,330.45277,-86.98970,
,,,335.38490,-86.98970,
,,,340.31703,-86.98970,
,,,345.24916,-86.98970,
,,,350.18129,-86.98970,
,,,355.11342,-86.98970,
,,,360.04555,-85.78970,
,,,364.97768,-86.98970,
,,,369.90981,-86.98970,
,,,374.84194,-86.98970,
,,,379.77407,-86.98970,
,,,384.70620,-86.98970,
,,,389.63833,-86.98970,
,,,394.57046,-86.98970,
,,,399.50259,-86.98970,
,,,404.43472,-86.98970,
,,,409.36685,-86.98970,
,,,414.29898,-86.98970,
,,,419.23111,-86.98970,
,,,424.16324,-86.98970,
,,,429.09537,-86.98970,
,,,434.02750,-86.98970,
,,,438.95963,-86.98970,
,,,443.89176,-78.98970,
,,,448.82389,-78.98970,
,,,453.75602,-86.98970,
,,,458.68815,-86.98970,
,,,463.62028,-86.98970,
,,,468.55241,-86.98970,
,,,473.48454,-86.98970,
,,,478.41667,-86.98970,
,,,483.34880,-86.98970,
,,,488.28093,-86.98970,
,,,493.21306,-86.98970,
,,,498.14519,-86.98970,
,,,503.07732,-86.98970,
,,,508.00945,-86.98970,
,,,512.94158,-86.98970,
,,,517.87371,-86.98970,
,,,522.80584,-86.98970,
,,,527.73797,-86.98970,
,,,532.67010,-86.98970,
,,,537.60223,-86.98970,
,,,542.53436,-86.98970,
,,,547.46649,-86.98970,
,,,552.39862,-86.98970,
,,,557.33075,-86.98970,
,,,562.26288,-86.98970,
,,,567.19501,-86.98970,
,,,572.12714,-86.98970,
,,,577.05927,-86.98970,
,,,581.99140,-86.98970,
,,,586.92353,-86.98970,
,,,591.85566,-86.98970,
,,,596.78779,-86.98970,
,,,601.71992,-86.98970,
,,,606.65205,-86.98970,
,,,611.58418,-86.98970,
,,,616.51631,-86.98970,
,,,621.44844,-86.98970,
,,,626.38057,-86.98970,
,,,631.31270,-86.98970,
,,,636.24483,-86.98970,
,,,641.17696,-86.98970,
,,,646.10909,-86.98970,
,,,651.04122,-86.98970,
,,,655.97335,-86.98970,
,,,660.90548,-86.98970,
,,,665.83761,-86.98970,
,,,670.76974,-86.98970,
,,,675.70187,-86.98970,
,,,680.63400,-86.98970,
,,,685.56613,-86.98970,
,,,690.49826,-86.98970,
,,,695.43039,-86.98970,
,,,700.36252,-86.98970,
,,,705.29465,-86.98970,
,,,710.22678,-86.98970,
,,,715.15891,-86.98970,
,,,720.09104,-86.98970,
,,,725.02317,-86.98970,
,,,729.95530,-86.98970,
,,,734.88743,-86.98970,
,,,739.81956,-86.98970,
,,,744.75169,-86.98970,
,,,749.68382,-86.98970,
,,,754.61595,-86.98970,
,,,759.54808,-86.98970,
,,,764.48021,-86.98970,
,,,769.41234,-85.78970,
,,,774.34447,-86.98970,
,,,779.27660,-86.98970,
,,,784.20873,-86.98970,
,,,789.14086,-86.98970,
,,,794.07299,-86.98970,
,,,799.00512,-86.98970,
,,,803.93725,-86.98970,
,,,808.86938,-86.98970,
,,,813.80151,-86.98970,
,,,818.73364,-86.98970,
,,,823.66577,-86.98970,
,,,828.59790,-86.98970,
,,,833.53003,-86.98970,
,,,838.46216,-86.98970,
,,,843.39429,-86.98970,
,,,848.32642,-86.98970,
,,,853.25855,-86.98970,
,,,858.19068,-86.98970,
,,,863.12281,-86.98970,
,,,868.05494,-86.98970,
,,,872.98707,-86.98970,
,,,877.91920,-86.98970,
,,,882.85133,-86.98970,
,,,887.78346,-86.98970,
,,,892.71559,-86.98970,
,,,897.64772,-86.98970,
,,,902.57985,-86.98970,
,,,907.51198,-86.98970,
,,,912.44411,-86.98970,
,,,917.37624,-86.98970,
,,,922.30837,-85.78970,
,,,927.24050,-86.98970,
,,,932.17263,-86.98970,
,,,937.10476,-86.98970,
,,,942.03689,-86.98970,
,,,946.96902,-86.98970,
,,,951.90115,-86.98970,
,,,956.83328,-86.98970,
,,,961.76541,-86.98970,
,,,966.69754,-86.98970,
,,,971.62967,-85.78970,
,,,976.56180,-86.98970,
,,,981.49393,-86.98970,
,,,986.42606,-86.98970,
,,,991.35819,-86.98970,
,,,996.29032,-86.98970,
,,,1001.22245,-86.98970,
,,,1006.15458,-86.98970,
,,,1011.08671,-86.98970,
,,,1016.01884,-86.98970,
,,,1020.95097,-86.98970,
,,,1025.88310,-86.98970,
,,,1030.81523,-86.98970,
,,,1035.74736,-86.98970,
,,,1040.67949,-86.98970,
,,,1045.61162,-86.98970,
,,,1050.54375,-86.98970,
,,,1055.47588,-86.98970,
,,,1060.40801,-86.98970,
,,,1065.34014,-86.98970,
,,,1070.27227,-86.98970,
,,,1075.20440,-86.98970,
,,,1080.13653,-86.98970,
,,,1085.06866,-86.98970,
,,,1090.00079,-86.98970,
,,,1094.93292,-86.98970,
,,,1099.86505,-86.98970,
,,,1104.79718,-86.98970,
,,,1109.72931,-86.98970,
,,,1114.66144,-86.98970,
,,,1119.59357,-86.98970,
,,,1124.52570,-86.98970,
,,,1129.45783,-86.98970,
,,,1134.38996,-86.98970,
,,,1139.32209,-86.98970,
,,,1144.25422,-86.98970,
,,,1149.18635,-86.98970,
,,,1154.11848,-86.98970,
,,,1159.05061,-86.98970,
,,,1163.98274,-86.98970,
,,,1168.91487,-86.98970,
,,,1173.84700,-86.98970,
,,,1178.77913,-86.98970,
,,,1183.71126,-86.98970,
,,,1188.64339,-86.98970,
,,,1193.57552,-86.98970,
,,,1198.50765,-86.98970,
,,,1203.43978,-86.98970,
,,,1208.37191,-86.98970,
,,,1213.30404,-86.98970,
,,,1218.23617,-86.98970,
,,,1223.16830,-86.98970,
,,,1228.10043,-86.98970,
,,,1233.03256,-86.98970,
,,,1237.96469,-86.98970,
,,,1242.89682,-86.98970,
,,,1247.82895,-86.98970,
,,,1252.76108,-86.98970,
,,,1257.69321,-86.98970,
,,,1262.62534,-86.98970,
,,,1267.55747,-86.98970,
,,,1272.48960,-86.98970,
,,,1277.42173,-86.98970,
,,,1282.35386,-86.98970,
,,,1287.28599,-86.98970,
,,,1292.21812,-86.98970,
,,,1297.15025,-86.98970,
,,,1302.08238,-86.98970,
,,,1307.01451,-86.98970,
,,,1311.94664,-86.98970,
,,,1316.87877,-86.98970,
,,,1321.81090,-86.98970,
,,,1326.74303,-86.98970,
,,,1331.67516,-85.78970,
,,,1336.60729,-82.98970,
,,,1341.53942,-83.78970,
,,,1346.47155,-83.38970,
,,,1351.40368,-83.78970,
,,,1356.33581,-86.98970,
,,,1361.26794,-86.98970,
,,,1366.20007,-86.98970,
,,,1371.13220,-86.98970,
,,,1376.06433,-86.98970,
,,,1380.99646,-86.98970,
,,,1385.92859,-86.98970,
,,,1390.86072,-86.98970,
,,,1395.79285,-86.98970,
,,,1400.72498,-86.98970,
,,,1405.65711,-86.98970,
,,,1410.58924,-86.98970,
,,,1415.52137,-86.98970,
,,,1420.45350,-86.98970,
,,,1425.38563,-85.78970,
,,,1430.31776,-86.98970,
,,,1435.24989,-86.98970,
,,,1440.18202,-86.98970,
,,,1445.11415,-86.98970,
,,,1450.04628,-86.98970,
,,,1454.97841,-86.98970,
,,,1459.91054,-86.98970,
,,,1464.84267,-86.98970,
,,,1469.77480,-86.98970,
,,,1474.70693,-85.78970,
,,,1479.63906,-86.98970,
,,,1484.57119,-86.98970,
,,,1489.50332,-86.98970,
,,,1494.43545,-86.98970,
,,,1499.36758,-86.98970,
,,,1504.29971,-86.98970,
,,,1509.23184,-86.98970,
,,,1514.16397,-86.98970,
,,,1519.09610,-86.98970,
,,,1524.02823,-86.98970,
,,,1528.96036,-86.98970,
,,,1533.89249,-86.98970,
,,,1538.82462,-86.98970,
,,,1543.75675,-86.98970,
,,,1548.68888,-86.98970,
,,,1553.62101,-86.98970,
,,,1558.55314,-85.78970,
,,,1563.48527,-86.98970,
,,,1568.41740,-86.98970,
,,,1573.34953,-86.98970,
,,,1578.28166,-86.98970,
,,,1583.21379,-86.98970,
,,,1588.14592,-86.98970,
,,,1593.07805,-86.98970,
,,,1598.01018,-86.98970,
,,,1602.94231,-86.98970,
,,,1607.87444,-86.98970,
,,,1612.80657,-86.98970,
,,,1617.73870,-86.98970,
,,,1622.67083,-86.98970,
,,,1627.60296,-86.98970,
,,,1632.53509,-86.98970,
,,,1637.46722,-86.98970,
,,,1642.39935,-86.98970,
,,,1647.33148,-86.98970,
,,,1652.26361,-86.98970,
,,,1657.19574,-86.98970,
,,,1662.12787,-86.98970,
,,,1667.06000,-86.98970,
,,,1671.99213,-86.98970,
,,,1676.92426,-85.78970,
,,,1681.85639,-86.98970,
,,,1686.78852,-86.98970,
,,,1691.72065,-86.98970,
,,,1696.65278,-86.98970,
,,,1701.58491,-86.98970,
,,,1706.51704,-86.98970,
,,,1711.44917,-86.98970,
,,,1716.38130,-86.98970,
,,,1721.31343,-86.98970,
,,,1726.24556,-86.98970,
,,,1731.17769,-86.98970,
,,,1736.10982,-86.98970,
,,,1741.04195,-86.98970,
,,,1745.97408,-85.78970,
,,,1750.90621,-86.98970,
,,,1755.83834,-86.98970,
,,,1760.77047,-86.98970,
,,,1765.70260,-86.98970,
,,,1770.63473,-86.98970,
,,,1775.56686,-86.98970,
,,,1780.49899,-86.98970,
,,,1785.43112,-85.78970,
,,,1790.36325,-86.98970,
,,,1795.29538,-86.98970,
,,,1800.22751,-86.98970,
,,,1805.15964,-86.98970,
,,,1810.09177,-86.98970,
,,,1815.02390,-86.98970,
,,,1819.95603,-86.98970,
,,,1824.88816,-86.98970,
,,,1829.82029,-86.98970,
,,,1834.75242,-86.98970,
,,,1839.68455,-86.98970,
,,,1844.61668,-86.98970,
,,,1849.54881,-86.98970,
,,,1854.48094,-86.98970,
,,,1859.41307,-86.98970,
,,,1864.34520,-86.98970,
,,,1869.27733,-86.98970,
,,,1874.20946,-86.98970,
,,,1879.14159,-86.98970,
,,,1884.07372,-86.98970,
,,,1889.00585,-83.38970,
,,,1893.93798,-85.78970,
,,,1898.87011,-86.98970,
,,,1903.80224,-86.98970,
,,,1908.73437,-86.98970,
,,,1913.66650,-85.78970,
,,,1918.59863,-86.98970,
,,,1923.53076,-86.98970,
,,,1928.46289,-86.98970,
,,,1933.39502,-86.98970,
,,,1938.32715,-86.98970,
,,,1943.25928,-86.98970,
,,,1948.19141,-86.98970,
,,,1953.12354,-86.98970,
,,,1958.05567,-86.98970,
,,,1962.98780,-86.98970,
,,,1967.91993,-86.98970,
,,,1972.85206,-86.98970,
,,,1977.78419,-86.98970,
,,,1982.71632,-86.98970,
,,,1987.64845,-86.98970,
,,,1992.58058,-86.98970,
,,,1997.51271,-86.98970,
,,,2002.44484,-86.98970,
,,,2007.37697,-86.98970,
,,,2012.30910,-86.98970,
,,,2017.24123,-86.98970,
,,,2022.17336,-86.98970,
,,,2027.10549,-86.98970,
,,,2032.03762,-86.98970,
,,,2036.96975,-86.98970,
,,,2041.90188,-86.98970,
,,,2046.83401,-86.98970,
,,,2051.76614,-86.98970,
,,,2056.69827,-86.98970,
,,,2061.63040,-86.98970,
,,,2066.56253,-86.98970,
,,,2071.49466,-86.98970,
,,,2076.42679,-86.98970,
,,,2081.35892,-86.98970,
,,,2086.29105,-86.98970,
,,,2091.22318,-86.98970,
,,,2096.15531,-86.98970,
,,,2101.08744,-86.98970,
,,,2106.01957,-86.98970,
,,,2110.95170,-86.98970,
,,,2115.88383,-86.98970,
,,,2120.81596,-86.98970,
,,,2125.74809,-86.98970,
,,,2130.68022,-86.98970,
,,,2135.61235,-86.98970,
,,,2140.54448,-86.98970,
,,,2145.47661,-86.98970,
,,,2150.40874,-86.98970,
,,,2155.34087,-86.98970,
,,,2160.27300,-86.98970,
,,,2165.20513,-86.98970,
,,,2170.13726,-86.98970,
,,,2175.06939,-86.98970,
,,,2180.00152,-86.98970,
,,,2184.93365,-86.98970,
,,,2189.86578,-86.98970,
,,,2194.79791,-86.98970,
,,,2199.73004,-86.98970,
,,,2204.66217,-86.98970,
,,,2209.59430,-86.98970,
,,,2214.52643,-86.98970,
,,,2219.45856,-86.98970,
,,,2224.39069,-86.98970,
,,,2229.32282,-86.98970,
,,,2234.25495,-86.98970,
,,,2239.18708,-86.98970,
,,,2244.11921,-85.78970,
,,,2249.05134,-86.98970,
,,,2253.98347,-83.78970,
,,,2258.91560,-86.98970,
,,,2263.84773,-86.98970,
,,,2268.77986,-86.98970,
,,,2273.71199,-85.78970,
,,,2278.64412,-86.98970,
,,,2283.57625,-86.98970,
,,,2288.50838,-85.78970,
,,,2293.44051,-86.98970,
,,,2298.37264,-85.78970,
,,,2303.30477,-86.98970,
,,,2308.23690,-86.98970,
,,,2313.16903,-85.78970,
,,,2318.10116,-85.78970,
,,,2323.03329,-86.98970,
,,,2327.96542,-80.98970,
,,,2332.89755,-83.38970,
,,,2337.82968,-85.78970,
,,,2342.76181,-86.98970,
,,,2347.69394,-86.98970,
,,,2352.62607,-86.98970,
,,,2357.55820,-86.98970,
,,,2362.49033,-86.98970,
,,,2367.42246,-86.98970,
,,,2372.35459,-86.98970,
,,,2377.28672,-86.98970,
,,,2382.21885,-86.98970,
,,,2387.15098,-86.98970,
,,,2392.08311,-86.98970,
,,,2397.01524,-86.98970,
,,,2401.94737,-83.38970,
,,,2406.87950,-86.98970,
,,,2411.81163,-86.98970,
,,,2416.74376,-85.78970,
,,,2421.67589,-86.98970,
,,,2426.60802,-86.98970,
,,,2431.54015,-86.98970,
,,,2436.47228,-86.98970,
,,,2441.40441,-86.98970,
,,,2446.33654,-86.98970,
,,,2451.26867,-86.98970,
,,,2456.20080,-86.98970,
,,,2461.13293,-86.98970,
,,,2466.06506,-86.98970,
,,,2470.99719,-86.98970,
,,,2475.92932,-86.98970,
,,,2480.86145,-86.98970,
,,,2485.79358,-86.98970,
,,,2490.72571,-86.98970,
,,,2495.65784,-86.98970,
,,,2500.58997,-86.98970,
,,,2505.52210,-86.98970,
,,,2510.45423,-86.98970,
,,,2515.38636,-86.98970,
,,,2520.31849,-86.98970,
,,,2525.25062,-86.98970,
,,,2530.18275,-86.98970,
,,,2535.11488,-86.98970,
,,,2540.04701,-86.98970,
,,,2544.97914,-86.98970,
,,,2549.91127,-86.98970,
,,,2554.84340,-86.98970,
,,,2559.77553,-86.98970,
,,,2564.70766,-86.98970,
,,,2569.63979,-86.98970,
,,,2574.57192,-86.98970,
,,,2579.50405,-86.98970,
,,,2584.43618,-86.98970,
,,,2589.36831,-86.98970,
,,,2594.30044,-86.98970,
,,,2599.23257,-86.98970,
,,,2604.16470,-86.98970,
,,,2609.09683,-86.98970,
,,,2614.02896,-86.98970,
,,,2618.96109,-86.98970,
,,,2623.89322,-86.98970,
,,,2628.82535,-86.98970,
,,,2633.75748,-86.98970,
,,,2638.68961,-86.98970,
,,,2643.62174,-86.98970,
,,,2648.55387,-86.98970,
,,,2653.48600,-86.98970,
,,,2658.41813,-86.98970,
,,,2663.35026,-86.98970,
,,,2668.28239,-86.98970,
,,,2673.21452,-86.98970,
,,,2678.14665,-86.98970,
,,,2683.07878,-86.98970,
,,,2688.01091,-86.98970,
,,,2692.94304,-86.98970,
,,,2697.87517,-86.98970,
,,,2702.80730,-86.98970,
,,,2707.73943,-85.78970,
,,,2712.67156,-86.98970,
,,,2717.60369,-86.98970,
,,,2722.53582,-86.98970,
,,,2727.46795,-85.78970,
,,,2732.40008,-86.98970,
,,,2737.33221,-86.98970,
,,,2742.26434,-86.98970,
,,,2747.19647,-86.98970,
,,,2752.12860,-86.98970,
,,,2757.06073,-85.78970,
,,,2761.99286,-86.98970,
,,,2766.92499,-82.98970,
,,,2771.85712,-83.38970,
,,,2776.78925,-85.78970,
,,,2781.72138,-85.78970,
,,,2786.65351,-86.98970,
,,,2791.58564,-86.98970,
,,,2796.51777,-86.98970,
,,,2801.44990,-86.98970,
,,,2806.38203,-86.98970,
,,,2811.31416,-86.98970,
,,,2816.24629,-86.98970,
,,,2821.17842,-86.98970,
,,,2826.11055,-86.98970,
,,,2831.04268,-86.98970,
,,,2835.97481,-86.98970,
,,,2840.90694,-86.98970,
,,,2845.83907,-86.98970,
,,,2850.77120,-86.98970,
,,,2855.70333,-86.98970,
,,,2860.63546,-86.98970,
,,,2865.56759,-86.98970,
,,,2870.49972,-86.98970,
,,,2875.43185,-86.98970,
,,,2880.36398,-86.98970,
,,,2885.29611,-86.98970,
,,,2890.22824,-86.98970,
,,,2895.16037,-86.98970,
,,,2900.09250,-86.98970,
,,,2905.02463,-85.78970,
,,,2909.95676,-86.98970,
,,,2914.88889,-86.98970,
,,,2919.82102,-86.98970,
,,,2924.75315,-86.98970,
,,,2929.68528,-86.98970,
,,,2934.61741,-86.98970,
,,,2939.54954,-86.98970,
,,,2944.48167,-86.98970,
,,,2949.41380,-86.98970,
,,,2954.34593,-86.98970,
,,,2959.27806,-86.98970,
,,,2964.21019,-86.98970,
,,,2969.14232,-86.98970,
,,,2974.07445,-86.98970,
,,,2979.00658,-86.98970,
,,,2983.93871,-86.98970,
,,,2988.87084,-86.98970,
,,,2993.80297,-85.78970,
,,,2998.73510,-86.98970,
,,,3003.66723,-86.98970,
,,,3008.59936,-86.98970,
,,,3013.53149,-86.98970,
,,,3018.46362,-86.98970,
,,,3023.39575,-86.98970,
,,,3028.32788,-86.98970,
,,,3033.26001,-86.98970,
,,,3038.19214,-86.98970,
,,,3043.12427,-86.98970,
,,,3048.05640,-86.98970,
,,,3052.98853,-86.98970,
,,,3057.92066,-86.98970,
,,,3062.85279,-86.98970,
,,,3067.78492,-86.98970,
,,,3072.71705,-86.98970,
,,,3077.64918,-86.98970,
,,,3082.58131,-86.98970,
,,,3087.51344,-86.98970,
,,,3092.44557,-86.98970,
,,,3097.37770,-86.98970,
,,,3102.30983,-86.98970,
,,,3107.24196,-86.98970,
,,,3112.17409,-83.78970,
,,,3117.10622,-86.98970,
,,,3122.03835,-86.98970,
,,,3126.97048,-86.98970,
,,,3131.90261,-86.98970,
,,,3136.83474,-86.98970,
,,,3141.76687,-86.98970,
,,,3146.69900,-86.98970,
,,,3151.63113,-86.98970,
,,,3156.56326,-86.98970,
,,,3161.49539,-86.98970,
,,,3166.42752,-86.98970,
,,,3171.35965,-86.98970,
,,,3176.29178,-86.98970,
,,,3181.22391,-86.98970,
,,,3186.15604,-86.98970,
,,,3191.08817,-86.98970,
,,,3196.02030,-86.98970,
,,,3200.95243,-85.78970,
,,,3205.88456,-86.98970,
,,,3210.81669,-82.98970,
,,,3215.74882,-72.18970,
,,,3220.68095,-71.38970,
,,,3225.61308,-80.58970,
,,,3230.54521,-86.98970,
,,,3235.47734,-85.78970,
,,,3240.40947,-86.98970,
,,,3245.34160,-86.98970,
,,,3250.27373,-86.98970,
,,,3255.20586,-86.98970,
,,,3260.13799,-85.78970,
,,,3265.07012,-86.98970,
,,,3270.00225,-85.78970,
,,,3274.93438,-86.98970,
,,,3279.86651,-86.98970,
,,,3284.79864,-86.98970,
,,,3289.73077,-86.98970,
,,,3294.66290,-86.98970,
,,,3299.59503,-86.98970,
,,,3304.52716,-86.98970,
,,,3309.45929,-86.98970,
,,,3314.39142,-86.98970,
,,,3319.32355,-86.98970,
,,,3324.25568,-86.98970,
,,,3329.18781,-86.98970,
,,,3334.11994,-86.98970,
,,,3339.05207,-86.98970,
,,,3343.98420,-86.98970,
,,,3348.91633,-86.98970,
,,,3353.84846,-86.98970,
,,,3358.78059,-86.98970,
,,,3363.71272,-86.98970,
,,,3368.64485,-86.98970,
,,,3373.57698,-86.98970,
,,,3378.50911,-86.98970,
,,,3383.44124,-86.98970,
,,,3388.37337,-86.98970,
,,,3393.30550,-86.98970,
,,,3398.23763,-86.98970,
,,,3403.16976,-86.98970,
,,,3408.10189,-86.98970,
,,,3413.03402,-86.98970,
,,,3417.96615,-86.98970,
,,,3422.89828,-86.98970,
,,,3427.83041,-86.98970,
,,,3432.76254,-86.98970,
,,,3437.69467,-86.98970,
,,,3442.62680,-86.98970,
,,,3447.55893,-86.98970,
,,,3452.49106,-86.98970,
,,,3457.42319,-86.98970,
,,,3462.35532,-86.98970,
,,,3467.28745,-86.98970,
,,,3472.21958,-86.98970,
,,,3477.15171,-86.98970,
,,,3482.08384,-86.98970,
,,,3487.01597,-86.98970,
,,,3491.94810,-86.98970,
,,,3496.88023,-86.98970,
,,,3501.81236,-86.98970,
,,,3506.74449,-86.98970,
,,,3511.67662,-86.98970,
,,,3516.60875,-86.98970,
,,,3521.54088,-86.98970,
,,,3526.47301,-86.98970,
,,,3531.40514,-86.98970,
,,,3536.33727,-86.98970,
,,,3541.26940,-86.98970,
,,,3546.20153,-86.98970,
,,,3551.13366,-86.98970,
,,,3556.06579,-86.98970,
,,,3560.99792,-86.98970,
,,,3565.93005,-86.98970,
,,,3570.86218,-86.98970,
,,,3575.79431,-86.98970,
,,,3580.72644,-86.98970,
,,,3585.65857,-86.98970,
,,,3590.59070,-86.98970,
,,,3595.52283,-86.98970,
,,,3600.45496,-86.98970,
,,,3605.38709,-86.98970,
,,,3610.31922,-86.98970,
,,,3615.25135,-86.98970,
,,,3620.18348,-86.98970,
,,,3625.11561,-86.98970,
,,,3630.04774,-86.98970,
,,,3634.97987,-86.98970,
,,,3639.91200,-86.98970,
,,,3644.84413,-86.98970,
,,,3649.77626,-86.98970,
,,,3654.70839,-86.98970,
,,,3659.64052,-82.98970,
,,,3664.57265,-85.78970,
,,,3669.50478,-82.98970,
,,,3674.43691,-85.78970,
,,,3679.36904,-86.98970,
,,,3684.30117,-86.98970,
,,,3689.23330,-86.98970,
,,,3694.16543,-86.98970,
,,,3699.09756,-86.98970,
,,,3704.02969,-86.98970,
,,,3708.96182,-86.98970,
,,,3713.89395,-86.98970,
,,,3718.82608,-86.98970,
,,,3723.75821,-86.98970,
,,,3728.69034,-86.98970,
,,,3733.62247,-86.98970,
,,,3738.55460,-86.98970,
,,,3743.48673,-86.98970,
,,,3748.41886,-86.98970,
,,,3753.35099,-86.98970,
,,,3758.28312,-86.98970,
,,,3763.21525,-86.98970,
,,,3768.14738,-86.98970,
,,,3773.07951,-86.98970,
,,,3778.01164,-85.78970,
,,,3782.94377,-86.98970,
,,,3787.87590,-86.98970,
,,,3792.80803,-86.98970,
,,,3797.74016,-86.98970,
,,,3802.67229,-86.98970,
,,,3807.60442,-86.98970,
,,,3812.53655,-86.98970,
,,,3817.46868,-86.98970,
,,,3822.40081,-85.78970,
,,,3827.33294,-86.98970,
,,,3832.26507,-86.98970,
,,,3837.19720,-86.98970,
,,,3842.12933,-86.98970,
,,,3847.06146,-86.98970,
,,,3851.99359,-86.98970,
,,,3856.92572,-86.98970,
,,,3861.85785,-86.98970,
,,,3866.78998,-86.98970,
,,,3871.72211,-86.98970,
,,,3876.65424,-86.98970,
,,,3881.58637,-86.98970,
,,,3886.51850,-86.98970,
,,,3891.45063,-85.78970,
,,,3896.38276,-86.98970,
,,,3901.31489,-86.98970,
,,,3906.24702,-86.98970,
,,,3911.17915,-86.98970,
,,,3916.11128,-86.98970,
,,,3921.04341,-86.98970,
,,,3925.97554,-86.98970,
,,,3930.90767,-86.98970,
,,,3935.83980,-86.98970,
